Simulate stochastic block model of given number of groups — sim_basic_block_network • sbmR
…
    See also

    sim_sbm_network sim_random_network

    Examples

sim_basic_block_network(n_groups = 4, n_nodes_per_group = 10)
#> $nodes
#> # A tibble: 40 x 2
#>    id    group
#>    <chr> <chr>
#>  1 g1_1  g1   
#>  2 g1_2  g1   
#>  3 g1_3  g1   
#>  4 g1_4  g1   
#>  5 g1_5  g1   
#>  6 g1_6  g1   
#>  7 g1_7  g1   
#>  8 g1_8  g1   
#>  9 g1_9  g1   
#> 10 g1_10 g1   
#> # … with 30 more rows
#> 
#> $edges
#> # A tibble: 366 x 2
#>    from  to   
#>    <chr> <chr>
#>  1 g1_1  g1_2 
#>  2 g1_1  g1_3 
#>  3 g1_1  g1_7 
#>  4 g1_1  g1_8 
#>  5 g1_1  g1_9 
#>  6 g1_1  g1_10
#>  7 g1_1  g2_1 
#>  8 g1_1  g2_3 
#>  9 g1_1  g2_4 
#> 10 g1_1  g2_5 
#> # … with 356 more rows
…
